"S/N","Name","Lassra Number","Phone Number","Location","Gender","Email","Local government","Sector","Program","Vtc","Course","Applied on"
1,"Sample Sample ",,,"Lekki Epe Expressway","Female","sample83@example1.com",,"Business Support","Blackbell Program","Israel & Daughters  ","Agent Banking",
2,"Achugo Emeka ",,,"7 Shackleford Street Ebute - Metta West
First Floor","Male","achugo1@outlook.com",,"Construction","UNDP Vocational Training ",,"Dress Making",
3,"Sample Sample ",,,"Lekki Epe Expressway","Female","sample32@example1.com",,"Business Support","Blackbell Program","Israel & Daughters  ","Agent Banking",
4,"Emeka EmekaNorth ",,,"Over here",,"qe@gmail.com",,"Business Support","UNDP Vocational Training ","Chugs Metro","Agent Banking",
5,"Sample Sample ",,,"Lekki Epe Expressway","Female","sample24@example1.com",,"Business Support","Blackbell Program","Israel & Daughters  ","Agent Banking",
6,"Sample Sample ",,,"Lekki Epe Expressway","Female","sample61@example1.com",,"Business Support","Blackbell Program","Israel & Daughters  ","Agent Banking",
7,"Sample Sample ",,,"Lekki Epe Expressway","Female","sample30@example1.com",,"Business Support","Blackbell Program","Israel & Daughters  ","Agent Banking",
8,"Sample Sample ",,,"Lekki Epe Expressway","Female","sample84@example1.com",,"Business Support","Blackbell Program","Israel & Daughters  ","Agent Banking",
9,"ifeoluwa israel ",,,"addresses",,"Tess.Stark@hotmail.com",,"Construction","UNDP Vocational Training ","Chugs Metro",,
10,"Sample Sample ",,,"Lekki Epe Expressway","Female","sample97@example1.com",,"Business Support","Blackbell Program","Israel & Daughters  ","Agent Banking",
11,"Sample Sample ",,,,,"Sample@example.com",,,,"Chugs Metro",,
12,"Sample Sample ",,,"Lekki Epe Expressway","Male","Sample1@example.com",,"Business Support","Blackbell Program","Chugs Metro","Agent Banking",
13,"Glacia Uche ",,,"Lekki Epe Expressway","Female","test.m.a.n.a.gr2@gmail.com",,"Business Support","UNDP Vocational Training ","Israel & Daughters  ","Agent Banking",
14,"Sample Sample ",,,"Lekki Epe Expressway","Female","sample27@example1.com",,"Business Support","Blackbell Program","Israel & Daughters  ","Agent Banking",
15,"Sample Sample ",,,"Lekki Epe Expressway","Female","sample43@example1.com",,"Business Support","Blackbell Program","Israel & Daughters  ","Agent Banking",
16,"Sample Sample ",,,"Lekki Epe Expressway","Female","sample21@example1.com",,"Business Support","Blackbell Program","Israel & Daughters  ","Agent Banking",
17,"Sample Sample ",,,"Lekki Epe Expressway","Female","sample91@example1.com",,"Business Support","Blackbell Program","Israel & Daughters  ","Agent Banking",
18,"Sample Sample ",,,"Lekki Epe Expressway","Female","sample15@example1.com",,"Business Support","Blackbell Program","Israel & Daughters  ","Agent Banking",
19,"Sample Sample ",,,"Lekki Epe Expressway","Female","sample13@example1.com",,"Business Support","Blackbell Program","Israel & Daughters  ","Agent Banking",
20,"Sample Sample ",,,"Lekki Epe Expressway","Female","sample17@example1.com",,"Business Support","Blackbell Program","Israel & Daughters  ","Agent Banking",
21,"Sample Sample ",,,"Lekki Epe Expressway","Female","sample28@example1.com",,"Business Support","Blackbell Program","Israel & Daughters  ","Agent Banking",
22,"Emeka EmekaNorth ",,,"This is hwat  i live in",,"israel.is@gmail.com",,"Construction","UNDP Vocational Training ","Chugs Metro","Masonry",
23,"Sample Sample ",,,"Lekki Epe Expressway","Female","sample14@example1.com",,"Business Support","Blackbell Program","Israel & Daughters  ","Agent Banking",
24,"Sample Sample ",,,"Lekki Epe Expressway","Female","sample44@example1.com",,"Business Support","Blackbell Program","Israel & Daughters  ","Agent Banking",
25,"Sample Sample ",,,"Lekki Epe Expressway","Female","sample20@example1.com",,"Business Support","Blackbell Program","Israel & Daughters  ","Agent Banking",
26,"Sample Sample ",,,"Lekki Epe Expressway","Female","sample16@example1.com",,"Business Support","Blackbell Program","Israel & Daughters  ","Agent Banking",
27,"Sample Sample ",,,"Lekki Epe Expressway","Female","sample29@example1.com",,"Business Support","Blackbell Program","Israel & Daughters  ","Agent Banking",
28,"Sample Sample ",,,"Lekki Epe Expressway","Female","sample31@example1.com",,"Business Support","Blackbell Program","Israel & Daughters  ","Agent Banking",
29,"Sample Sample ",,,"Lekki Epe Expressway","Female","sample92@example1.com",,"Business Support","Blackbell Program","Israel & Daughters  ","Agent Banking",
30,"Sample Sample ",,,"Lekki Epe Expressway","Female","sample86@example1.com",,"Business Support","Blackbell Program","Israel & Daughters  ","Agent Banking",
31,"Sample Sample ",,,"Lekki Epe Expressway","Female","sample90@example1.com",,"Business Support","Blackbell Program","Israel & Daughters  ","Agent Banking",
32,"Sample Sample ",,,"Lekki Epe Expressway","Female","sample11@example1.com",,"Business Support","Blackbell Program","Israel & Daughters  ","Agent Banking",
33,"Sample Sample ",,,"Lekki Epe Expressway","Female","sample10@example1.com",,"Business Support","Blackbell Program","Israel & Daughters  ","Agent Banking",
34,"Sample Sample ",,,"Lekki Epe Expressway","Female","sample@example1.com",,"Business Support","UNDP Vocational Training ","Chugs Metro","Agent Banking",
35,"Test Test ",,,"Test","Female","te.stman.agr@gmail.com",,"Transportation","Blackbell Program",,"Maritime",
36,"Sample Sample ",,,"Lekki Epe Expressway","Female","sample34@example1.com",,"Business Support","Blackbell Program","Israel & Daughters  ","Agent Banking",
37,"Sample Sample ",,,"Lekki Epe Expressway","Female","sample35@example1.com",,"Business Support","Blackbell Program","Israel & Daughters  ","Agent Banking",
38,"Sample Sample ",,,"Lekki Epe Expressway","Female","sample36@example1.com",,"Business Support","Blackbell Program","Israel & Daughters  ","Agent Banking",
39,"Sample Sample ",,,"Lekki Epe Expressway","Female","sample93@example1.com",,"Business Support","Blackbell Program","Israel & Daughters  ","Agent Banking",
40,"Sample Sample ",,,"Lekki Epe Expressway","Female","sample42@example1.com",,"Business Support","Blackbell Program","Israel & Daughters  ","Agent Banking",
41,"Sample Sample ",,,"Lekki Epe Expressway","Female","sample47@example1.com",,"Business Support","Blackbell Program","Israel & Daughters  ","Agent Banking",
42,"Sample Sample ",,,"Lekki Epe Expressway","Female","sample48@example1.com",,"Business Support","Blackbell Program","Israel & Daughters  ","Agent Banking",
43,"Sample Sample ",,,"Lekki Epe Expressway","Female","sample41@example1.com",,"Business Support","Blackbell Program","Israel & Daughters  ","Agent Banking",
44,"Sample Sample ",,,"Lekki Epe Expressway","Female","sample46@example1.com",,"Business Support","Blackbell Program","Israel & Daughters  ","Agent Banking",
45,"Sample Sample ",,,"Lekki Epe Expressway","Female","sample87@example1.com",,"Business Support","Blackbell Program","Israel & Daughters  ","Agent Banking",
46,"Sample Sample ",,,"Lekki Epe Expressway","Female","sample52@example1.com",,"Business Support","Blackbell Program","Israel & Daughters  ","Agent Banking",
47,"Sample Sample ",,,"Lekki Epe Expressway","Female","sample53@example1.com",,"Business Support","Blackbell Program","Israel & Daughters  ","Agent Banking",
48,"Sample Sample ",,,"Lekki Epe Expressway","Female","sample54@example1.com",,"Business Support","Blackbell Program","Israel & Daughters  ","Agent Banking",
49,"Sample Sample ",,,"Lekki Epe Expressway","Female","sample51@example1.com",,"Business Support","Blackbell Program","Israel & Daughters  ","Agent Banking",
50,"Sample Sample ",,,"Lekki Epe Expressway","Female","sample99@example1.com",,"Business Support","Blackbell Program","Israel & Daughters  ","Agent Banking",
51,"Sample Sample ",,,"Lekki Epe Expressway","Female","sample38@example1.com",,"Business Support","Blackbell Program","Israel & Daughters  ","Agent Banking",
52,"Adamu Kezu ",,,"Epe","Female","test.m.a.nagr2@gmail.com",,"Business Support","Blackbell Program","Israel & Daughters  ","Agent Banking",
53,"Sample Sample ",,,"Lekki Epe Expressway","Female","sample75@example1.com",,"Business Support","Blackbell Program","Israel & Daughters  ","Agent Banking",
54,"Sample Sample ",,,"Lekki Epe Expressway","Female","sample77@example1.com",,"Business Support","Blackbell Program","Israel & Daughters  ","Agent Banking",
55,"Sample Sample ",,,"Lekki Epe Expressway","Female","sample60@example1.com",,"Business Support","Blackbell Program","Israel & Daughters  ","Agent Banking",
56,"Sample Sample ",,,"Lekki Epe Expressway","Female","sample79@example1.com",,"Business Support","Blackbell Program","Israel & Daughters  ","Agent Banking",
57,"Sample Sample ",,,"Lekki Epe Expressway","Female","sample63@example1.com",,"Business Support","Blackbell Program","Israel & Daughters  ","Agent Banking",
58,"Sample Sample ",,,"Lekki Epe Expressway","Female","sample64@example1.com",,"Business Support","Blackbell Program","Israel & Daughters  ","Agent Banking",
59,"Sample Sample ",,,"Lekki Epe Expressway","Female","sample65@example1.com",,"Business Support","Blackbell Program","Israel & Daughters  ","Agent Banking",
60,"Sample Sample ",,,"Lekki Epe Expressway","Female","sample59@example1.com",,"Business Support","Blackbell Program","Israel & Daughters  ","Agent Banking",
61,"Sample Sample ",,,"Lekki Epe Expressway","Female","sample88@example1.com",,"Business Support","Blackbell Program","Israel & Daughters  ","Agent Banking",
62,"Sample Sample ",,,"Lekki Epe Expressway","Female","sample94@example1.com",,"Business Support","Blackbell Program","Israel & Daughters  ","Agent Banking",
63,"Sample Sample ",,,"Lekki Epe Expressway","Female","sample89@example1.com",,"Business Support","Blackbell Program","Israel & Daughters  ","Agent Banking",
64,"Sample Sample ",,,"Lekki Epe Expressway","Female","sample22@example1.com",,"Business Support","Blackbell Program","Israel & Daughters  ","Agent Banking",
65,"Sample Sample ",,,"Lekki Epe Expressway","Female","sample9@example1.com",,"Business Support","Blackbell Program","Israel & Daughters  ","Agent Banking",
66,"Sample Sample ",,,"Lekki Epe Expressway","Female","sample6@example1.com",,"Beauty","Blackbell Program",,"Hairdressing",
67,"Sample Sample ",,,"Lekki Epe Expressway","Female","sample18@example1.com",,"Business Support","Blackbell Program","Israel & Daughters  ","Agent Banking",
68,"Sample Sample ",,,"Lekki Epe Expressway","Female","sample3@example1.com",,"Business Support","Blackbell Program","Israel & Daughters  ","Agent Banking",
69,"Sample Sample ",,,"Lekki Epe Expressway","Female","sample74@example1.com",,"Business Support","Blackbell Program","Israel & Daughters  ","Agent Banking",
70,"Sample Sample ",,,"Lekki Epe Expressway","Female","sample76@example1.com",,"Business Support","Blackbell Program","Israel & Daughters  ","Agent Banking",
71,"Sample Sample ",,,"Lekki Epe Expressway","Female","sample78@example1.com",,"Business Support","Blackbell Program","Israel & Daughters  ","Agent Banking",
72,"Sample Sample ",,,"Lekki Epe Expressway","Female","sample80@example1.com",,"Business Support","Blackbell Program","Israel & Daughters  ","Agent Banking",
73,"Sample Sample ",,,"Lekki Epe Expressway","Female","sample81@example1.com",,"Business Support","Blackbell Program","Israel & Daughters  ","Agent Banking",
74,"Sample Sample ",,,"Lekki Epe Expressway","Female","sample85@example1.com",,"Business Support","Blackbell Program","Israel & Daughters  ","Agent Banking",
75,"Sample Sample ",,,"Lekki Epe Expressway","Female","sample71@example1.com",,"Business Support","Blackbell Program","Israel & Daughters  ","Agent Banking",
76,"Sample Sample ",,,"Lekki Epe Expressway","Female","sample72@example1.com",,"Business Support","Blackbell Program","Israel & Daughters  ","Agent Banking",
77,"Sample Sample ",,,"Lekki Epe Expressway","Female","sample73@example1.com",,"Business Support","Blackbell Program","Israel & Daughters  ","Agent Banking",
78,"Sample Sample ",,,"Lekki Epe Expressway","Female","sample95@example1.com",,"Business Support","Blackbell Program","Israel & Daughters  ","Agent Banking",
79,"Sample Sample ",,,"Lekki Epe Expressway","Female","sample4@example1.com",,"Business Support","Blackbell Program","Israel & Daughters  ","Agent Banking",
80,"Sample Sample ",,,"Lekki Epe Expressway","Female","sample62@example1.com",,"Business Support","Blackbell Program","Israel & Daughters  ","Agent Banking",
81,"Sample Sample ",,,"Lekki Epe Expressway","Female","sample82@example1.com",,"Business Support","Blackbell Program","Israel & Daughters  ","Agent Banking",
82,"Sample Sample ",,,"Lekki Epe Expressway","Female","sample96@example1.com",,"Business Support","Blackbell Program","Israel & Daughters  ","Agent Banking",
83,"Sample Sample ",,,"Lekki Epe Expressway","Female","sample37@example1.com",,"Business Support","Blackbell Program","Israel & Daughters  ","Agent Banking",
84,"Sample Sample ",,,"Lekki Epe Expressway","Female","sample26@example1.com",,"Business Support","Blackbell Program","Israel & Daughters  ","Agent Banking",
85,"Sample Sample ",,,"Lekki Epe Expressway","Female","sample25@example1.com",,"Business Support","Blackbell Program","Israel & Daughters  ","Agent Banking",
86,"Achugo Emeka ",,,"7 Shackleford Street Ebute - Metta West
First Floor","Male","achugo2017@outlook.com",,"Construction","Test Program","Chugs Metro","Electrical",
87,"Achugo Emeka ",,,"7 Shackleford Street Ebute - Metta West
First Floor","Female","eachugo@outlook.com",,"Business Support","Test Program","Chugs Metro","Agent Banking",
88,"Sample Sample ",,,"Lekki Epe Expressway","Female","sample40@example1.com",,"Business Support","Blackbell Program","Israel & Daughters  ","Agent Banking",
89,"Sample Sample ",,,"Lekki Epe Expressway","Female","sample58@example1.com",,"Business Support","Blackbell Program","Israel & Daughters  ","Agent Banking",
90,"Sample Sample ",,,"Lekki Epe Expressway","Female","sample5@example1.com",,"Business Support","Blackbell Program","Israel & Daughters  ","Agent Banking",
91,"Sample Sample ",,,"Lekki Epe Expressway","Female","sample56@example1.com",,"Business Support","Blackbell Program","Israel & Daughters  ","Agent Banking",
92,"Sample Sample ",,,"Lekki Epe Expressway","Female","sample12@example1.com",,"Business Support","Blackbell Program","Israel & Daughters  ","Agent Banking",
93,"Sample Sample ",,,"Lekki Epe Expressway","Female","sample33@example1.com",,"Business Support","Blackbell Program","Israel & Daughters  ","Agent Banking",
94,"Sample Sample ",,,"Lekki Epe Expressway","Female","sample57@example1.com",,"Business Support","Blackbell Program","Israel & Daughters  ","Agent Banking",
95,"Ebenezer Thomas ",,,"Lekki Epe Expressway","Female","testmanagr.3@gmail.com",,"Business Support","Blackbell Program","Israel & Daughters  ","Agent Banking",
96,"Sample Sample ",,,"Lekki Epe Expressway","Female","sample55@example1.com",,"Business Support","Blackbell Program","Israel & Daughters  ","Agent Banking",
97,"Richard Pen ",,,"Lekki Epe Expressway-","Female","testmanag.r3@gmail.com",,"Business Support","Blackbell Program","Israel & Daughters  ","Agent Banking",
98,"Sample Sample ",,,"Lekki Epe Expressway","Female","sample100@example1.com",,"Business Support","Blackbell Program","Israel & Daughters  ","Agent Banking",
99,"ifeoluwa israel ",,,"addresses","M","Ebony_Yost41@hotmail.com",,"Construction","UNDP Vocational Training ",,"Masonry",
100,"Sample Sample ",,,"Lekki Epe Expressway","Female","sample98@example1.com",,"Business Support","Blackbell Program","Israel & Daughters  ","Agent Banking",
101,"Glacia Peters ",,,"Lekki Epe Expressway","Female","testman.agr3@gmail.com",,"Business Support","Blackbell Program","Israel & Daughters  ","Agent Banking",
102,"Dorris Ekanem ",,,"Lekki Epe Expressway","Female","testmanag.r.3@gmail.com",,"Business Support","Blackbell Program","Israel & Daughters  ","Agent Banking",
103,"ifeoluwa israel ",,,"addresses","M","Blanca85@yahoo.com",,"Construction","UNDP Vocational Training ",,"Masonry",
104,"ifeoluwa israel ",,,"addresses","M","Brayan_Reynolds@yahoo.com",,"Construction","UNDP Vocational Training ",,"Masonry",
105,"ifeoluwa israel ",,,"addresses","M","Rahsaan.Barrows6@yahoo.com",,"Construction","UNDP Vocational Training ",,"Masonry",
106,"ifeoluwa israel ",,,"addresses","M","Giuseppe_Gorczany@hotmail.com",,"Construction","UNDP Vocational Training ",,"Masonry",
107,"ifeoluwa israel ",,,"addresses","M","Hudson.Kunze@hotmail.com",,"Construction","UNDP Vocational Training ",,"Masonry",
108,"ifeoluwa israel ",,,"addresses","M","Hudson.Kunze@hotmail.com",,"Construction","UNDP Vocational Training ",,"Masonry",
109,"ifeoluwa israel ",,,"addresses","M","Krista.Kunze43@yahoo.com",,"Construction","UNDP Vocational Training ",,"Masonry",
110,"ifeoluwa israel ",,,"addresses","M","Krista.Kunze43@yahoo.com",,"Construction","UNDP Vocational Training ",,"Masonry",
111,"ifeoluwa israel ",,,"addresses","M","Aric.Hahn@gmail.com",,"Construction","UNDP Vocational Training ",,"Masonry",
112,"ifeoluwa israel ",,,"addresses","M","Aric.Hahn@gmail.com",,"Construction","UNDP Vocational Training ",,"Masonry",
113,"ifeoluwa israel ",,,"addresses","M","Charley_Altenwerth33@gmail.com",,"Construction","UNDP Vocational Training ",,"Masonry",
114,"ifeoluwa israel ",,,"addresses","M","Rocky_Heller41@yahoo.com",,"Construction","UNDP Vocational Training ",,"Masonry",
115,"ifeoluwa israel ",,,"addresses","M","Genevieve13@gmail.com",,"Construction","UNDP Vocational Training ",,"Masonry",
116,"ifeoluwa israel ",,,"addresses","M","Charley_Altenwerth33@gmail.com",,"Construction","UNDP Vocational Training ",,"Masonry",
117,"ifeoluwa israel ",,,"addresses","M","Geraldine.Aufderhar@gmail.com",,"Construction","UNDP Vocational Training ","Chugs Metro","Masonry",
118,"ifeoluwa israel ",,,"addresses","M","Oran86@hotmail.com",,"Construction","UNDP Vocational Training ",,"Masonry",
119,"ifeoluwa israel ",,,"addresses","M","Emiliano85@gmail.com",,"Construction","UNDP Vocational Training ",,"Masonry",
120,"Sample Sample ",,,"Lekki Epe Expressway","Female","tes.tmanagr3@gmail.com",,"Business Support","Blackbell Program","Israel & Daughters  ","Agent Banking",
121,"Babatunde George ",,,"Lekki Epe Expressway","Male","testman.a.gr3@gmail.com",,"Business Support","UNDP Vocational Training ","Israel & Daughters  ","Agent Banking",
122,"Test Test ",,,"Lekki","Female","sample@example.com",,"Construction","UNDP Vocational Training ",,"Tilling",
123,"Face Social ",,,"29A, Lagos Street",,"testm.a.n.agr@gmail.com",,"Business Support","UNDP Vocational Training ","Chugs Metro","Electrical",
124,"Sample Sample ",,,"Lekki Epe Expressway","Female","sample7@example1.com",,"Business Support","Blackbell Program","Israel & Daughters  ","Agent Banking",
125,"Sample Sample ",,,"Lekki Epe Expressway","Female","sample8@example1.com",,"Business Support","Blackbell Program","Israel & Daughters  ","Agent Banking",
126,"Sample Sample ",,,"Lekki Epe Expressway","Female","sample50@example1.com",,"Business Support","Blackbell Program","Israel & Daughters  ","Agent Banking",
127,"Sample Sample ",,,"Lekki Epe Expressway","Female","sample2@example1.com",,"Business Support","Blackbell Program","Israel & Daughters  ","Agent Banking",
128,"Sample Sample ",,,"Lekki Epe Expressway","Female","sample49@example1.com",,"Business Support","Blackbell Program","Israel & Daughters  ","Agent Banking",